{
    "KPlugin": {
        "Category": "Accessibility",
        "Description": "Makes the cursor larger when the pointer is quickly moved back and forth",
        "Description[ca@valencia]": "Fa el cursor més gran quan el punter es mou ràpidament cap avant i cap arrere",
        "Description[ca]": "Fa el cursor més gran quan el punter es mou ràpidament cap endavant i cap enrere",
        "Description[eo]": "Pligrandigas la kursoron kiam la montrilo estas rapide movita tien kaj reen",
        "Description[es]": "Agranda el cursor cuando el puntero se mueve rápidamente adelante y atrás",
        "Description[eu]": "Kurtsorea handitzen du erakuslea aurrera eta atzera azkar mugitzen denean",
        "Description[fr]": "Agrandit le curseur lorsque le pointeur est rapidement déplacé d’avant en arrière",
        "Description[gl]": "Aumenta o cursor ao movelo rapidamente dun lado a outro.",
        "Description[he]": "מגדיל את הסמן בעת הזזת המצביע הלוך ושוב במהירות",
        "Description[ia]": "Face le cursor plus grande quando le punctator es rapidemente movite retro e avante",
        "Description[ka]": "კურსორის გადიდება, როცა მას წინ და უკან სწრაფად გააქანებთ",
        "Description[nl]": "Maakt de cursor groter wanneer de aanwijzer snel heen en weer wordt bewogen",
        "Description[sk]": "Zväčší kurzor pri rýchlom pohybe ukazovateľa tam a späť",
        "Description[sl]": "Poveča kazalec, kadar se kazalec hitro premika naprej in nazaj",
        "Description[tr]": "İşaretçi hızla ileri geri hareket ettirildiğinde imleci büyütür",
        "Description[uk]": "Робити курсор більшим, коли вказівник швидко рухається туди-сюди",
        "Description[x-test]": "xxMakes the cursor larger when the pointer is quickly moved back and forthxx",
        "Description[zh_TW]": "快速來回移動游標時讓游標變大",
        "EnabledByDefault": false,
        "License": "GPL",
        "Name": "Shake Cursor",
        "Name[ca@valencia]": "Sacsa el cursor",
        "Name[ca]": "Sacseja el cursor",
        "Name[eo]": "Skui Kursoron",
        "Name[es]": "Sacudir el cursor",
        "Name[eu]": "Astindu kurtsorea",
        "Name[fr]": "Agiter le pointeur",
        "Name[gl]": "Axitar o cursor",
        "Name[he]": "ניעור סמן",
        "Name[ia]": "Agita Cursor",
        "Name[ka]": "კურსორის ჯანჯღარი",
        "Name[nl]": "Cursor schudden",
        "Name[sk]": "Zatriasť kurzorom",
        "Name[sl]": "Stresaj kazalko",
        "Name[tr]": "İmleci Salla",
        "Name[uk]": "Бовтанка курсора",
        "Name[x-test]": "xxShake Cursorxx",
        "Name[zh_TW]": "甩動游標"
    }
}
